{
		"Channel": {
			"id": "",
			"name": ""
		},
		"Funds": {
			"incomeFund": "",
			"apexFund": "",
			"opportunityFund": "",
			"secureFund": "",
			"maximizeFund": "",
			"balanceFund": ""
		},
		"PayorDetails": {
			"sex": "",
			"age": "",
			"name": "",
            "isStaff": ""
		},
		"ChildDetails": {
			"name": "",
			"sex": "",
			"age": ""
		},
		"ProposerDetails": {
			"sex": "",
			"age": "",
			"name": ""
		},
		"ADBRider": {
			"id": "",
			"isRequired": "",
			"term": "",
			"sumAssured": "",
			"uniqueRiderName":"",
			"uniqueRiderCode":""
		},
		"ATPDRider": {
			"id": "",
			"isRequired": "",
			"term": "",
			"sumAssured": "",
			"uniqueRiderName":"",
			"uniqueRiderCode":""
		},
		"CIRider": {
			"id": "",
			"isRequired": "",
			"term": "",
			"sumAssured": "",
			"uniqueRiderName":"",
			"uniqueRiderCode":""
		},
		"LGWOPRider": {
			"id": "",
			"isRequired": "",
			"term": "",
			"sumAssured": "",
			"uniqueRiderName":"",
			"uniqueRiderCode":""
		},
		"InsuredDetails": {
			"isLIEqualsPH": "",
			"sex": "",
			"state": "",
			"age": "",
			"name": "",
			"insuredType": "",
			"isStaff": "",
                        "ageProofDocType": "",
			"isNRI": "",
			"isSmoker": "",
			"dateOfBirth":""
		},
		"PolicyDetails": {
			"productCode": "",
			"payoutOption": "",
			"payoutFrequency": "",
			"sumAssured": "",
			"bonusOption": "",
			"planOption": "",
			"policyTerm": "",
			"premiumMode":"",
			"annualPremium": "",
			"optedEIC": "",
			"premiumPayingTerm": "",
			"dateOfIllustration": ""
		},
		"SurrenderOption": {
			"isRequired": "",
			"amount": []
		}
}